ecm/2sem/лр1/evm/run.vcd
$date
	Thu Oct  2 20:24:11 2025
$end
$version
	ModelSim Version 2020.1
$end
$timescale
	1ps
$end
$scope module tb $end
$var reg 32 ! cyc_cnt [31:0] $end
$scope module uut $end
$scope module cpu $end
$scope module fetch_block $end
$var reg 32 " pc [31:0] $end
$upscope $end
$upscope $end
$upscope $end
$upscope $end
$enddefinitions $end
#0
bx !
bx "
#2000000
b10000000000000000000000000000000 "
#28000000
b1 !
#30000000
b10000000000000000000000000000100 "
b10 !
#32000000
b10000000000000000000000000001000 "
b11 !
#34000000
b10000000000000000000000000001100 "
b100 !
#36000000
b10000000000000000000000000010000 "
b101 !
#38000000
b10000000000000000000000000010100 "
b110 !
#40000000
b10000000000000000000000000011000 "
b111 !
#42000000
b10000000000000000000000000011100 "
b1000 !
#44000000
b10000000000000000000000000100000 "
b1001 !
#46000000
b10000000000000000000000000100100 "
b1010 !
#48000000
b10000000000000000000000000101000 "
b1011 !
#50000000
b10000000000000000000000000101100 "
b1100 !
#52000000
b10000000000000000000000000110000 "
b1101 !
#54000000
b10000000000000000000000000110100 "
b1110 !
#56000000
b10000000000000000000000000111000 "
b1111 !
#58000000
b10000000000000000000000000111100 "
b10000 !
#60000000
b10000000000000000000000001000000 "
b10001 !
#62000000
b10000000000000000000000001000100 "
b10010 !
#64000000
b10000000000000000000000001001000 "
b10011 !
#66000000
b10000000000000000000000001001100 "
b10100 !
#68000000
b10000000000000000000000001010000 "
b10101 !
#70000000
b10000000000000000000000000010000 "
b10110 !
#72000000
b10000000000000000000000000010100 "
b10111 !
#74000000
b10000000000000000000000000011000 "
b11000 !
#76000000
b10000000000000000000000000011100 "
b11001 !
#78000000
b10000000000000000000000000100000 "
b11010 !
#80000000
b10000000000000000000000000100100 "
b11011 !
#82000000
b10000000000000000000000000101000 "
b11100 !
#84000000
b10000000000000000000000000101100 "
b11101 !
#86000000
b10000000000000000000000000110000 "
b11110 !
#88000000
b10000000000000000000000000110100 "
b11111 !
#90000000
b10000000000000000000000000111000 "
b100000 !
#92000000
b10000000000000000000000000010000 "
b100001 !
#94000000
b10000000000000000000000000010100 "
b100010 !
#96000000
b10000000000000000000000000011000 "
b100011 !
#98000000
b10000000000000000000000000011100 "
b100100 !
#100000000
b10000000000000000000000000100000 "
b100101 !
#102000000
b10000000000000000000000000100100 "
b100110 !
#104000000
b10000000000000000000000000111100 "
b100111 !
#106000000
b10000000000000000000000001000000 "
b101000 !
#108000000
b10000000000000000000000001000100 "
b101001 !
#110000000
b10000000000000000000000001001000 "
b101010 !
#112000000
b10000000000000000000000001001100 "
b101011 !
#114000000
b10000000000000000000000001010000 "
b101100 !
#116000000
b10000000000000000000000001000000 "
b101101 !
#118000000
b101110 !
#120000000
b101111 !
#122000000
b110000 !
#124000000
b110001 !
#126000000
b110010 !
#128000000
b110011 !
#130000000
b110100 !
#132000000
b110101 !
#134000000
b110110 !
#136000000
b110111 !
#138000000
b111000 !
#140000000
b111001 !
#142000000
b111010 !
#144000000
b111011 !
#146000000
b111100 !
#148000000
b111101 !
#150000000
b111110 !
#152000000
b111111 !
#154000000
b1000000 !
#156000000
b1000001 !
#158000000
b1000010 !
#160000000
b1000011 !
#162000000
b1000100 !
#164000000
b1000101 !
#166000000
b1000110 !
#168000000
b1000111 !
#170000000
b1001000 !
#172000000
b1001001 !
#174000000
b1001010 !
#176000000
b1001011 !
#178000000
b1001100 !
#180000000
b1001101 !
#182000000
b1001110 !
#184000000
b1001111 !
#186000000
b1010000 !
#188000000
b1010001 !
#190000000
b1010010 !
#192000000
b1010011 !
#194000000
b1010100 !
#196000000
b1010101 !
#198000000
b1010110 !
#200000000
b1010111 !
#202000000
b1011000 !
#204000000
b1011001 !
#206000000
b1011010 !
#208000000
b1011011 !
#210000000
b1011100 !
#212000000
b1011101 !
#214000000
b1011110 !
#216000000
b1011111 !
#218000000
b1100000 !
#220000000
b1100001 !
#222000000
b1100010 !
#224000000
b1100011 !
#226000000
b1100100 !
#228000000
b1100101 !
#230000000
b1100110 !
#232000000
b1100111 !
#234000000
b1101000 !
#236000000
b1101001 !
#238000000
b1101010 !
#240000000
b1101011 !
#242000000
b1101100 !
#244000000
b1101101 !
#246000000
b1101110 !
#248000000
b1101111 !
#250000000
b1110000 !
#252000000
b1110001 !
#254000000
b1110010 !
#256000000
b1110011 !
#258000000
b1110100 !
#260000000
b1110101 !
#262000000
b1110110 !
#264000000
b1110111 !
#266000000
b1111000 !
#268000000
b1111001 !
#270000000
b1111010 !
#272000000
b1111011 !
#274000000
b1111100 !
#276000000
b1111101 !
#278000000
b1111110 !
#280000000
b1111111 !
#282000000
b10000000 !
#284000000
b10000001 !
#286000000
b10000010 !
#288000000
b10000011 !
#290000000
b10000100 !
#292000000
b10000101 !
#294000000
b10000110 !
#296000000
b10000111 !
#298000000
b10001000 !
#300000000
b10001001 !
#302000000
b10001010 !
#304000000
b10001011 !
#306000000
b10001100 !
#308000000
b10001101 !
#310000000
b10001110 !
#312000000
b10001111 !
#314000000
b10010000 !
#316000000
b10010001 !
#318000000
b10010010 !
#320000000
b10010011 !
#322000000
b10010100 !
#324000000
b10010101 !
#326000000
b10010110 !
#328000000
b10010111 !
#330000000
b10011000 !
#332000000
b10011001 !
#334000000
b10011010 !
#336000000
b10011011 !
#338000000
b10011100 !
#340000000
b10011101 !
#342000000
b10011110 !
#344000000
b10011111 !
#346000000
b10100000 !
#348000000
b10100001 !
#350000000
b10100010 !
#352000000
b10100011 !
#354000000
b10100100 !
#356000000
b10100101 !
#358000000
b10100110 !
#360000000
b10100111 !
#362000000
b10101000 !
#364000000
b10101001 !
#366000000
b10101010 !
#368000000
b10101011 !
#370000000
b10101100 !
#372000000
b10101101 !
#374000000
b10101110 !
#376000000
b10101111 !
#378000000
b10110000 !
#380000000
b10110001 !
#382000000
b10110010 !
#384000000
b10110011 !
#386000000
b10110100 !
#388000000
b10110101 !
#390000000
b10110110 !
#392000000
b10110111 !
#394000000
b10111000 !
#396000000
b10111001 !
#398000000
b10111010 !
#400000000
b10111011 !
#402000000
b10111100 !
#404000000
b10111101 !
#406000000
b10111110 !
#408000000
b10111111 !
#410000000
b11000000 !
#412000000
b11000001 !
#414000000
b11000010 !
#416000000
b11000011 !
#418000000
b11000100 !
#420000000
b11000101 !
#422000000
b11000110 !
#424000000
b11000111 !
#426000000
b11001000 !
#428000000
b11001001 !
#430000000
b11001010 !
#432000000
b11001011 !
#434000000
b11001100 !
#436000000
b11001101 !
#438000000
b11001110 !
#440000000
b11001111 !
#442000000
b11010000 !
#444000000
b11010001 !
#446000000
b11010010 !
#448000000
b11010011 !
#450000000
b11010100 !
#452000000
b11010101 !
#454000000
b11010110 !
#456000000
b11010111 !
#458000000
b11011000 !
#460000000
b11011001 !
