ecm/2sem/лр1/evm/run_opt_broken.vcd
$date
	Wed Oct 15 14:50:03 2025
$end
$version
	QuestaSim Version 2021.2_1
$end
$timescale
	1ps
$end
$scope module tb $end
$var reg 1 ! sys_clk $end
$scope module uut $end
$scope module cpu $end
$scope module fetch_block $end
$var reg 32 " pc [31:0] $end
$upscope $end
$upscope $end
$upscope $end
$upscope $end
$enddefinitions $end
#0
b0 !
bx "
b0 !
#2000000
b1 !
b10000000000000000000000000000000 "
#3000000
b0 !
#4000000
b1 !
#5000000
b0 !
#6000000
b1 !
#7000000
b0 !
#8000000
b1 !
#9000000
b0 !
#10000000
b1 !
#11000000
b0 !
#12000000
b1 !
#13000000
b0 !
#14000000
b1 !
#15000000
b0 !
#16000000
b1 !
#17000000
b0 !
#18000000
b1 !
#19000000
b0 !
#20000000
b1 !
#21000000
b0 !
#22000000
b1 !
#23000000
b0 !
#24000000
b1 !
#25000000
b0 !
#26000000
b1 !
#27000000
b0 !
#28000000
b1 !
#29000000
b0 !
#30000000
b1 !
b10000000000000000000000000000100 "
#31000000
b0 !
#32000000
b1 !
b10000000000000000000000000001000 "
#33000000
b0 !
#34000000
b1 !
b10000000000000000000000000001100 "
#35000000
b0 !
#36000000
b1 !
b10000000000000000000000000010000 "
#37000000
b0 !
#38000000
b1 !
b10000000000000000000000000010100 "
#39000000
b0 !
#40000000
b1 !
#41000000
b0 !
#42000000
b1 !
#43000000
b0 !
#44000000
b1 !
#45000000
b0 !
#46000000
b1 !
#47000000
b0 !
#48000000
b1 !
#49000000
b0 !
#50000000
b1 !
#51000000
b0 !
#52000000
b1 !
#53000000
b0 !
#54000000
b1 !
#55000000
b0 !
#56000000
b1 !
#57000000
b0 !
#58000000
b1 !
#59000000
b0 !
#60000000
b1 !
#61000000
b0 !
#62000000
b1 !
#63000000
b0 !
#64000000
b1 !
#65000000
b0 !
#66000000
b1 !
#67000000
b0 !
#68000000
b1 !
#69000000
b0 !
#70000000
b1 !
#71000000
b0 !
#72000000
b1 !
#73000000
b0 !
#74000000
b1 !
#75000000
b0 !
#76000000
b1 !
#77000000
b0 !
#78000000
b1 !
#79000000
b0 !
#80000000
b1 !
#81000000
b0 !
#82000000
b1 !
#83000000
b0 !
#84000000
b1 !
#85000000
b0 !
#86000000
b1 !
#87000000
b0 !
#88000000
b1 !
#89000000
b0 !
#90000000
b1 !
#91000000
b0 !
#92000000
b1 !
#93000000
b0 !
#94000000
b1 !
#95000000
b0 !
#96000000
b1 !
#97000000
b0 !
#98000000
b1 !
#99000000
b0 !
#100000000
b1 !
#101000000
b0 !
#102000000
b1 !
#103000000
b0 !
#104000000
b1 !
#105000000
b0 !
#106000000
b1 !
#107000000
b0 !
#108000000
b1 !
#109000000
b0 !
#110000000
b1 !
#111000000
b0 !
#112000000
b1 !
#113000000
b0 !
#114000000
b1 !
#115000000
b0 !
#116000000
b1 !
#117000000
b0 !
#118000000
b1 !
#119000000
b0 !
#120000000
b1 !
#121000000
b0 !
#122000000
b1 !
#123000000
b0 !
#124000000
b1 !
#125000000
b0 !
#126000000
b1 !
#127000000
b0 !
#128000000
b1 !
#129000000
b0 !
#130000000
b1 !
#131000000
b0 !
#132000000
b1 !
#133000000
b0 !
#134000000
b1 !
#135000000
b0 !
#136000000
b1 !
#137000000
b0 !
#138000000
b1 !
#139000000
b0 !
#140000000
b1 !
#141000000
b0 !
#142000000
b1 !
#143000000
b0 !
#144000000
b1 !
#145000000
b0 !
#146000000
b1 !
#147000000
b0 !
#148000000
b1 !
#149000000
b0 !
#150000000
b1 !
#151000000
b0 !
#152000000
b1 !
#153000000
b0 !
#154000000
b1 !
#155000000
b0 !
#156000000
b1 !
#157000000
b0 !
#158000000
b1 !
#159000000
b0 !
#160000000
b1 !
#161000000
b0 !
#162000000
b1 !
#163000000
b0 !
#164000000
b1 !
#165000000
b0 !
#166000000
b1 !
#167000000
b0 !
#168000000
b1 !
#169000000
b0 !
#170000000
b1 !
#171000000
b0 !
#172000000
b1 !
#173000000
b0 !
#174000000
b1 !
#175000000
b0 !
#176000000
b1 !
#177000000
b0 !
#178000000
b1 !
#179000000
b0 !
#180000000
b1 !
#181000000
b0 !
#182000000
b1 !
#183000000
b0 !
#184000000
b1 !
#185000000
b0 !
#186000000
b1 !
#187000000
b0 !
#188000000
b1 !
#189000000
b0 !
#190000000
b1 !
#191000000
b0 !
#192000000
b1 !
#193000000
b0 !
#194000000
b1 !
#195000000
b0 !
#196000000
b1 !
#197000000
b0 !
#198000000
b1 !
#199000000
b0 !
#200000000
b1 !
#201000000
b0 !
#202000000
b1 !
#203000000
b0 !
#204000000
b1 !
#205000000
b0 !
#206000000
b1 !
#207000000
b0 !
#208000000
b1 !
#209000000
b0 !
#210000000
b1 !
#211000000
b0 !
#212000000
b1 !
#213000000
b0 !
#214000000
b1 !
#215000000
b0 !
#216000000
b1 !
#217000000
b0 !
#218000000
b1 !
#219000000
b0 !
#220000000
b1 !
#221000000
b0 !
#222000000
b1 !
#223000000
b0 !
#224000000
b1 !
#225000000
b0 !
#226000000
b1 !
#227000000
b0 !
#228000000
b1 !
#229000000
b0 !
#230000000
b1 !
#231000000
b0 !
#232000000
b1 !
#233000000
b0 !
#234000000
b1 !
#235000000
b0 !
#236000000
b1 !
#237000000
b0 !
#238000000
b1 !
#239000000
b0 !
#240000000
b1 !
#241000000
b0 !
#242000000
b1 !
#243000000
b0 !
#244000000
b1 !
#245000000
b0 !
#246000000
b1 !
#247000000
b0 !
#248000000
b1 !
#249000000
b0 !
#250000000
b1 !
#251000000
b0 !
#252000000
b1 !
#253000000
b0 !
#254000000
b1 !
#255000000
b0 !
#256000000
b1 !
#257000000
b0 !
#258000000
b1 !
#259000000
b0 !
#260000000
b1 !
#261000000
b0 !
#262000000
b1 !
#263000000
b0 !
#264000000
b1 !
#265000000
b0 !
#266000000
b1 !
#267000000
b0 !
#268000000
b1 !
#269000000
b0 !
#270000000
b1 !
#271000000
b0 !
#272000000
b1 !
#273000000
b0 !
#274000000
b1 !
#275000000
b0 !
#276000000
b1 !
#277000000
b0 !
#278000000
b1 !
#279000000
b0 !
#280000000
b1 !
#281000000
b0 !
#282000000
b1 !
#283000000
b0 !
#284000000
b1 !
#285000000
b0 !
#286000000
b1 !
#287000000
b0 !
#288000000
b1 !
#289000000
b0 !
#290000000
b1 !
#291000000
b0 !
#292000000
b1 !
#293000000
b0 !
#294000000
b1 !
#295000000
b0 !
#296000000
b1 !
#297000000
b0 !
#298000000
b1 !
#299000000
b0 !
#300000000
b1 !
#301000000
b0 !
#302000000
b1 !
#303000000
b0 !
#304000000
b1 !
#305000000
b0 !
#306000000
b1 !
#307000000
b0 !
#308000000
b1 !
#309000000
b0 !
#310000000
b1 !
#311000000
b0 !
#312000000
b1 !
#313000000
b0 !
#314000000
b1 !
#315000000
b0 !
#316000000
b1 !
#317000000
b0 !
#318000000
b1 !
#319000000
b0 !
#320000000
b1 !
#321000000
b0 !
#322000000
b1 !
#323000000
b0 !
#324000000
b1 !
#325000000
b0 !
#326000000
b1 !
#327000000
b0 !
#328000000
b1 !
#329000000
b0 !
#330000000
b1 !
#331000000
b0 !
#332000000
b1 !
#333000000
b0 !
#334000000
b1 !
#335000000
b0 !
#336000000
b1 !
#337000000
b0 !
#338000000
b1 !
#339000000
b0 !
#340000000
b1 !
#341000000
b0 !
#342000000
b1 !
#343000000
b0 !
#344000000
b1 !
#345000000
b0 !
#346000000
b1 !
#347000000
b0 !
#348000000
b1 !
#349000000
b0 !
#350000000
b1 !
#351000000
b0 !
#352000000
b1 !
#353000000
b0 !
#354000000
b1 !
#355000000
b0 !
#356000000
b1 !
#357000000
b0 !
#358000000
b1 !
#359000000
b0 !
#360000000
b1 !
#361000000
b0 !
#362000000
b1 !
#363000000
b0 !
#364000000
b1 !
#365000000
b0 !
#366000000
b1 !
#367000000
b0 !
#368000000
b1 !
#369000000
b0 !
#370000000
b1 !
#371000000
b0 !
#372000000
b1 !
#373000000
b0 !
#374000000
b1 !
#375000000
b0 !
#376000000
b1 !
#377000000
b0 !
#378000000
b1 !
#379000000
b0 !
#380000000
b1 !
#381000000
b0 !
#382000000
b1 !
#383000000
b0 !
#384000000
b1 !
#385000000
b0 !
#386000000
b1 !
#387000000
b0 !
#388000000
b1 !
#389000000
b0 !
#390000000
b1 !
#391000000
b0 !
#392000000
b1 !
#393000000
b0 !
#394000000
b1 !
#395000000
b0 !
#396000000
b1 !
#397000000
b0 !
#398000000
b1 !
#399000000
b0 !
#400000000
b1 !
#401000000
b0 !
#402000000
b1 !
#403000000
b0 !
#404000000
b1 !
#405000000
b0 !
#406000000
b1 !
#407000000
b0 !
#408000000
b1 !
#409000000
b0 !
#410000000
b1 !
#411000000
b0 !
#412000000
b1 !
#413000000
b0 !
#414000000
b1 !
#415000000
b0 !
#416000000
b1 !
#417000000
b0 !
#418000000
b1 !
#419000000
b0 !
#420000000
b1 !
#421000000
b0 !
#422000000
b1 !
#423000000
b0 !
#424000000
b1 !
#425000000
b0 !
#426000000
b1 !
#427000000
b0 !
#428000000
b1 !
#429000000
b0 !
#430000000
b1 !
#431000000
b0 !
#432000000
b1 !
#433000000
b0 !
#434000000
b1 !
#435000000
b0 !
#436000000
b1 !
#437000000
b0 !
#438000000
b1 !
#439000000
b0 !
#440000000
b1 !
#441000000
b0 !
#442000000
b1 !
#443000000
b0 !
#444000000
b1 !
#445000000
b0 !
#446000000
b1 !
#447000000
b0 !
#448000000
b1 !
#449000000
b0 !
#450000000
b1 !
#451000000
b0 !
#452000000
b1 !
#453000000
b0 !
#454000000
b1 !
#455000000
b0 !
#456000000
b1 !
#457000000
b0 !
#458000000
b1 !
#459000000
b0 !
#460000000
b1 !
